HIM in R – Physician Fee Schedule
…
OPPS Payment Cap Determination: 1 = Applies, 9 = Does not Apply

opps_nf

OPPS Non-Facility

OPPS Capped Non-facility Pricing amount

opps_f

OPPS Facility

OPPS Capped Facility Pricing amount

#> # A tibble: 3,059 × 2
#>    flat_vis     n
#>       <dbl> <int>
#>  1     42.1   312
#>  2     40.9    53
#>  3     37.7    52
#>  4     38.1    52
#>  5     38.3    52
#>  6     38.9    52
#>  7     38.9    52
#>  8     39.5    52
#>  9     39.8    52
#> 10     39.9    52
#> # ℹ 3,049 more rows

pfs_pay |> 
  select(!where(is.numeric)) |> 
  names() |> 
  map(~ count(pfs_pay, .data[[.x]], sort = TRUE))

#> [[1]]
#> # A tibble: 55 × 2
#>    mac        n
#>    <chr>  <int>
#>  1 01112 209000
#>  2 04412  72696
#>  3 01182  54522
#>  4 06102  36348
#>  5 05302  27261
#>  6 09102  27261
#>  7 13202  27261
#>  8 02302  18174
#>  9 02402  18174
#> 10 07202  18174
#> # ℹ 45 more rows
#> 
#> [[2]]
#> # A tibble: 47 × 2
#>    locality      n
#>    <chr>     <int>
#>  1 01       172653
#>  2 00       154479
#>  3 99       136305
#>  4 02        36348
#>  5 03        27261
#>  6 09        27261
#>  7 04        18174
#>  8 15        18174
#>  9 16        18174
#> 10 18        18174
#> # ℹ 37 more rows
#> 
#> [[3]]
#> # A tibble: 7,443 × 2
#>    hcpcs     n
#>    <chr> <int>
#>  1 0509T   327
#>  2 51725   327
#>  3 51726   327
#>  4 51727   327
#>  5 51728   327
#>  6 51729   327
#>  7 51736   327
#>  8 51741   327
#>  9 51784   327
#> 10 51785   327
#> # ℹ 7,433 more rows
…
