HIM in R – Taxonomy
…
Radiology

Surgery

Otolaryngology

Pathology

Level III: Area of Specialization

A more specialized area of the Classification in which a provider chooses to practice or make services available.

For example, the Area of Specialization for provider grouping Allopathic & Osteopathic Physicians is based upon the Subspecialty Certificates as issued by the appropriate national boards.

# A tibble: 874 × 10
   code   display_name section grouping classification specialization definition
   <chr>  <chr>        <chr>   <chr>    <chr>          <chr>          <chr>     
 1 19320… Multi-Speci… Indivi… Group    Multi-Special… <NA>           A busines…
 2 19340… Single Spec… Indivi… Group    Single Specia… <NA>           A busines…
 3 207K0… Allergy & I… Indivi… Allopat… Allergy & Imm… <NA>           An allerg…
 4 207KA… Allergy Phy… Indivi… Allopat… Allergy & Imm… Allergy        A physici…
 5 207KI… Clinical & … Indivi… Allopat… Allergy & Imm… Clinical & La… An allerg…
 6 207L0… Anesthesiol… Indivi… Allopat… Anesthesiology <NA>           An anesth…
 7 207LA… Addiction M… Indivi… Allopat… Anesthesiology Addiction Med… An anesth…
 8 207LC… Critical Ca… Indivi… Allopat… Anesthesiology Critical Care… An anesth…
 9 207LH… Hospice and… Indivi… Allopat… Anesthesiology Hospice and P… An anesth…
10 207LP… Pain Medici… Indivi… Allopat… Anesthesiology Pain Medicine  An anesth…
# ℹ 864 more rows
# ℹ 3 more variables: notes <chr>, version <chr>, release_date <date>
…
6..873

874
Transportation Services
Transportation Network Company
NA
342000000X
A ride-sharing company that provides prearranged or contracted non-emergency medical transportation services to patients through mobile or online technology.

Table of Taxonomy Codes

taxonomy_codes(shape = "long")

# A tibble: 3,255 × 3
   Code       Level               Description                        
   <chr>      <ord>               <chr>                              
 1 193200000X I. Category         Individual                         
 2 193200000X II. Grouping        Group                              
 3 193200000X III. Classification Multi-Specialty                    
 4 193400000X I. Category         Individual                         
 5 193400000X II. Grouping        Group                              
 6 193400000X III. Classification Single Specialty                   
 7 207K00000X I. Category         Individual                         
 8 207K00000X II. Grouping        Allopathic & Osteopathic Physicians
 9 207K00000X III. Classification Allergy & Immunology               
10 207KA0200X I. Category         Individual                         
# ℹ 3,245 more rows
…
